…
``` r
app_data_raw %>%
  tbl_vars()
```

    ## <dplyr:::vars>
    ## [1] "application_number" "filing_date"        "examiner_id"       
    ## [4] "au"                 "disposal_type"      "tc"                
    ## [7] "gender"             "race"               "earliest_date"

``` r
app_data_raw
```

    ## # A tibble: 2,018,477 × 9
    ##    application_number filing_date examiner_id    au disposal_type    tc gender
    ##    <chr>              <date>            <dbl> <dbl> <chr>         <dbl> <chr> 
    ##  1 08284457           2000-01-26        96082  1764 ISS            1700 female
    ##  2 08413193           2000-10-11        87678  1764 ISS            1700 <NA>  
    ##  3 08531853           2000-05-17        63213  1752 ISS            1700 female
    ##  4 08637752           2001-07-20        73788  1648 ISS            1600 female
    ##  5 08682726           2000-04-10        77294  1762 ABN            1700 male  
    ##  6 08687412           2000-04-28        68606  1734 ISS            1700 female
    ##  7 08716371           2004-01-26        89557  1627 PEND           1600 female
    ##  8 08765941           2000-06-23        97543  1645 ABN            1600 female
    ##  9 08776818           2000-02-04        98714  1637 ABN            1600 female
    ## 10 08809677           2002-02-20        65530  1723 ISS            1700 female
    ## # ℹ 2,018,467 more rows
    ## # ℹ 2 more variables: race <chr>, earliest_date <date>
