…
## Load the data

Let’s start by loading the project data file and looking at its
structure.

``` r
## load the data
app_data_raw <- read_feather(paste0(data_path,"app_data_starter_coded.feather")) 

## show the top 10 rows
app_data_raw
```

    ## # A tibble: 2,018,477 × 8
    ##    application_number examiner_id    au app_last_action_date app_disposal_type
    ##    <chr>                    <dbl> <dbl> <chr>                <chr>            
    ##  1 08284457                 96082  1764 30jan2003 00:00:00   ISS              
    ##  2 08413193                 87678  1764 27sep2010 00:00:00   ISS              
    ##  3 08531853                 63213  1752 30mar2009 00:00:00   ISS              
    ##  4 08637752                 73788  1648 07sep2009 00:00:00   ISS              
    ##  5 08682726                 77294  1762 19apr2001 00:00:00   ABN              
    ##  6 08687412                 68606  1734 16jul2001 00:00:00   ISS              
    ##  7 08716371                 89557  1627 15may2017 00:00:00   PEND             
    ##  8 08765941                 97543  1645 03apr2002 00:00:00   ABN              
    ##  9 08776818                 98714  1637 27nov2002 00:00:00   ABN              
    ## 10 08809677                 65530  1723 23mar2009 00:00:00   ISS              
    ## # ℹ 2,018,467 more rows
    ## # ℹ 3 more variables: gender <chr>, race <chr>, examiner_earliest_date <date>
…
